{
  "swagger": "2.0",
  "info": {
    "description": "Its main purpose is to be called comfortably",
    "version": "0.0.1",
    "title": "Mobile API Specs",
    "contact": {
      "email": "rega.ruzty@multipolar.com"
    }
  },
  "host": "167.71.201.207:20100",
  "tags": [
    {
      "name": "customer"
    },
    {
      "name": "otp"
    }
  ],
  "schemes": [
    "http"
  ],
  "paths": {
    "/customer/api/v1/customerInfo": {
      "post": {
        "tags": [
          "customer"
        ],
        "summary": "Save and request",
        "description": "Save initial customer info and requesting otp",
        "operationId": "customerInfo",
        "consumes": [
          "application/json"
        ],
        "produces": [
          "application/json"
        ],
        "parameters": [
          {
            "in": "body",
            "name": "body",
            "description": "Customer object that needs to be added initially",
            "required": true,
            "schema": {
              "$ref": "#/definitions/CustomerInfo"
            }
          }
        ],
        "responses": {
          "200": {
            "description": "successful operation",
            "schema": {
              "$ref": "#/definitions/BaseResponseRequest"
            }
          }
        }
      }
    },
    "/authenticator/api/v1/otp/check": {
      "post": {
        "tags": [
          "otp"
        ],
        "summary": "Checks OTP sent by mobile",
        "description": "Returns a status of success or false",
        "operationId": "checkOtp",
        "produces": [
          "application/json"
        ],
        "parameters": [
          {
            "in": "body",
            "name": "body",
            "description": "OTP object that needs to be included",
            "required": true,
            "schema": {
              "$ref": "#/definitions/Check"
            }
          }
        ],
        "responses": {
          "200": {
            "description": "successful operation",
            "schema": {
              "$ref": "#/definitions/BaseResponseCheck"
            }
          }
        }
      }
    }
  },
  "definitions": {
    "CustomerInfo": {
      "type": "object",
      "required": [
        "deviceId",
        "emailAddress",
        "mobileNumber"
      ],
      "properties": {
        "deviceId": {
          "type": "string",
          "example": "H556-8876-665S-8889"
        },
        "emailAddress": {
          "type": "string",
          "example": "rega.ruzty@multipolar.com"
        },
        "mobileNumber": {
          "type": "string",
          "example": "087758684688"
        }
      }
    },
    "Check": {
      "type": "object",
      "required": [
        "deviceId",
        "plainOtp"
      ],
      "properties": {
        "deviceId": {
          "type": "string",
          "example": "H556-8876-665S-8889"
        },
        "plainOtp": {
          "type": "string",
          "example": "277633"
        }
      }
    },
    "BaseResponseRequest": {
      "type": "object",
      "required": [
        "code",
        "message",
        "result"
      ],
      "properties": {
        "code": {
          "type": "string",
          "example": "AUTHSCC-001"
        },
        "message": {
          "type": "string",
          "example": "Request OTP success"
        },
        "result": {
          "type": "boolean",
          "example": true
        }
      }
    },
    "BaseResponseCheck": {
      "type": "object",
      "required": [
        "code",
        "message",
        "result"
      ],
      "properties": {
        "code": {
          "type": "string",
          "example": "AUTHSCC-002"
        },
        "message": {
          "type": "string",
          "example": "Check OTP success"
        },
        "result": {
          "type": "boolean",
          "example": true
        }
      }
    }
  }
}
