{
  "summary": "Represents a customer profile.",
  "description": "This API allows user to get information about user profile.",
  "get": {
    "summary": "Retrieve customer details.",
    "description": "Get customer by user ID.",
    "parameters": [
    {
      "name": "userId",
      "in": "path",
      "description": "User ID",
      "required": true,
      "schema": {
        "type": "string",
        "pattern": "^[a-zA-Z0-9]{6,20}$",
        "example": "HARPUR1123"
      }
    }
    ],
    "responses": {
      "200": {
        "content": {
          "application/json": {
            "schema": {
              "type": "object",
              "properties": {
                "data": {
                  "$ref": "../schemas/profile.json#/Profile"
                }
              }
            }
          }
        }
      }
    }
  }
}