{
  "summary": "Represent an challenge for user authentication.",
  "description": "This API allows user to challenge her authentication.",
  "put": {
    "summary": "User authentication challenge.",
    "description": "Challenge an authentication of a user.",
    "requestBody": {
      "required": true,
      "content": {
        "application/json": {
          "schema": {
            "type": "object",
            "properties": {
              "channel": {
                "description": "Channel to which the challenge is to be sent",
                "type": "string",
                "enum": ["sms", "mail"]
              }
            }
          }
        }
      }
    },
    "responses": {
      "201": {
        "description": "New authentication challenge sent.",
        "content": {
          "application/json": {
            "schema": {
              "type": "object",
              "properties": {
                "data": {
                  "type": "object",
                  "properties": {
                    "requestId": {
                      "type": "string",
                      "example": "765Agh78KJ340900"
                    }
                  }
                }
              }
            }
          }
        }
      }
    }
  }
}