{
  "Account": {
    "type": "object",
    "required": [
      "number",
      "name"
    ],
    "properties": {
      "number": {
        "type": "string"
      },
      "name": {
        "type": "string"
      }
    },
    "example": {
      "number": "1234567890123",
      "name": "Elnanda Palguno Cahyono"
    }
  },
  "Source_Account": {
    "allOf": [
      {
        "$ref": "#/Account"
      },
      {
        "type": "object",
        "properties": {
          "balance": {
            "type": "number",
            "format": "double"
          }
        },
        "example": {
          "balance": "140000000.00"
        }
      }
    ]
  },
  "Other_Bank_Account": {
    "allOf": [
      {
        "$ref": "#/Account"
      },
      {
        "type": "object",
        "properties": {
          "bankCode": {
            "type": "string",
            "pattern": "^\\d{3}$"
          }
        },
        "example": {
          "bankCode": "022"
        }
      }
    ]
  }
}