{
  "openapi": "3.0.0",
  
  "info": {
    "title": "Raptors",
    "description": "This is a list containing all APIs that is available in the system.",
    "version": "0.0.1"
  },

  "servers": [{
    "url": "https://",
    "description": "production"
  }],

  "security": [{
    "BearerAuth": ["sub"]
  }],

  "paths": {
    "/authentications": {
      "$ref": "authentication/authentication.json"
    },
    "/authentication-challenges": {
      "$ref": "authentication/authentication_challenge.json"
    },
    "/accounts/{number}": {
      "$ref": "account/account.json"
    },
    "/accounts/{number}/histories": {
      "$ref": "account/account_history.json"
    },
    "/user_accounts": {
      "$ref": "account/user_account.json"
    },
    "/customers": {
      "$ref": "customer/customer.json"
    },
    "/customer-registrations": {
      "$ref": "customer/customer_registration.json"
    },
    "/customer-id-cards": {
      "$ref": "customer/customer_id_card.json"
    },
    "/profiles/{userId}": {
      "$ref": "profile/profile.json"
    },
    "/messages": {
      "$ref": "message/message.json"
    }
  },

  "components": {
    "securitySchemes": {
      "BearerAuth": {
        "type": "http",
        "scheme": "bearer",
        "bearerFormat": "JWT"
      }
    }
  }
}